{
    "name": "Shooting",
    "rootNamespace": "",
    "references": [
        "GUID:3377deebfb0acde45876d12c6e3d27cc",
        "GUID:8c1711f2da66e5445a0afcb589517d01",
        "GUID:6bc70112dbbe49b42a6d6357825fb76a"
    ],
    "includePlatforms": [],
    "excludePlatforms": [],
    "allowUnsafeCode": false,
    "overrideReferences": false,
    "precompiledReferences": [],
    "autoReferenced": true,
    "defineConstraints": [],
    "versionDefines": [],
    "noEngineReferences": false
}