%YAML 1.1
%TAG !u! tag:unity3d.com,2011:
--- !u!1 &1538774331430008722
GameObject:
  m_ObjectHideFlags: 0
  m_CorrespondingSourceObject: {fileID: 0}
  m_PrefabInstance: {fileID: 0}
  m_PrefabAsset: {fileID: 0}
  serializedVersion: 6
  m_Component:
  - component: {fileID: 5662755601399098516}
  - component: {fileID: 4953675272896667912}
  - component: {fileID: 5414924787908245493}
  m_Layer: 0
  m_Name: ProjectContext
  m_TagString: Untagged
  m_Icon: {fileID: 0}
  m_NavMeshLayer: 0
  m_StaticEditorFlags: 0
  m_IsActive: 1
--- !u!4 &5662755601399098516
Transform:
  m_ObjectHideFlags: 0
  m_CorrespondingSourceObject: {fileID: 0}
  m_PrefabInstance: {fileID: 0}
  m_PrefabAsset: {fileID: 0}
  m_GameObject: {fileID: 1538774331430008722}
  serializedVersion: 2
  m_LocalRotation: {x: 0, y: 0, z: 0, w: 1}
  m_LocalPosition: {x: 0, y: 0, z: 0}
  m_LocalScale: {x: 1, y: 1, z: 1}
  m_ConstrainProportionsScale: 0
  m_Children: []
  m_Father: {fileID: 0}
  m_LocalEulerAnglesHint: {x: 0, y: 0, z: 0}
--- !u!114 &4953675272896667912
MonoBehaviour:
  m_ObjectHideFlags: 0
  m_CorrespondingSourceObject: {fileID: 0}
  m_PrefabInstance: {fileID: 0}
  m_PrefabAsset: {fileID: 0}
  m_GameObject: {fileID: 1538774331430008722}
  m_Enabled: 1
  m_EditorHideFlags: 0
  m_Script: {fileID: 11500000, guid: a4e6589720da476459dc6dd71624b071, type: 3}
  m_Name: 
  m_EditorClassIdentifier: 
  _scriptableObjectInstallers: []
  _monoInstallers:
  - {fileID: 5414924787908245493}
  _installerPrefabs: []
  _parentNewObjectsUnderContext: 1
  _editorReflectionBakingCoverageMode: 0
  _buildsReflectionBakingCoverageMode: 0
  _settings:
    _ensureDeterministicDestructionOrderOnApplicationQuit: 0
    _displayWarningWhenResolvingDuringInstall: 1
    _validationRootResolveMethod: 0
    _validationErrorResponse: 0
    _signalSettings:
      _defaultSyncMode: 0
      _missingHandlerDefaultResponse: 2
      _requireStrictUnsubscribe: 0
      _defaultAsyncTickPriority: 1
--- !u!114 &5414924787908245493
MonoBehaviour:
  m_ObjectHideFlags: 0
  m_CorrespondingSourceObject: {fileID: 0}
  m_PrefabInstance: {fileID: 0}
  m_PrefabAsset: {fileID: 0}
  m_GameObject: {fileID: 1538774331430008722}
  m_Enabled: 1
  m_EditorHideFlags: 0
  m_Script: {fileID: 11500000, guid: a3213a3bed284d9c8e1b16ae06e07bb3, type: 3}
  m_Name: 
  m_EditorClassIdentifier: 
  _initScene: {fileID: 11400000, guid: bf3a59fdef17e744984d08797238451a, type: 2}
  _gameSettings: {fileID: 11400000, guid: 9a4455c16cd33a643b5322ef0bf8d816, type: 2}
  _assetProvider: {fileID: 11400000, guid: f719985cb90b6a147971f2676dbae981, type: 2}
  _coinData: {fileID: 11400000, guid: 8d84a083185d6e34184064a4eb5a38ac, type: 2}
