{
    "name": "Spawn",
    "rootNamespace": "",
    "references": [
        "GUID:8c1711f2da66e5445a0afcb589517d01",
        "GUID:6bc70112dbbe49b42a6d6357825fb76a",
        "GUID:ec322046a3834afb8e974f57989f8fd0",
        "GUID:ce1469e412fae6c4ca69ab9a1d4f961d",
        "GUID:3377deebfb0acde45876d12c6e3d27cc"
    ],
    "includePlatforms": [],
    "excludePlatforms": [],
    "allowUnsafeCode": false,
    "overrideReferences": false,
    "precompiledReferences": [],
    "autoReferenced": true,
    "defineConstraints": [],
    "versionDefines": [],
    "noEngineReferences": false
}